%YAML 1.1
%TAG !u! tag:unity3d.com,2011:
--- !u!1045 &1
EditorBuildSettings:
  m_ObjectHideFlags: 0
  serializedVersion: 2
  m_Scenes:
  - enabled: 1
    path: Assets/DataFile/Scenes/MenuPrincipal.unity
    guid: fdd6fd2bebe106d4d90e3187dfcffd61
  - enabled: 1
    path: Assets/Scenes/RealidadeAumentada.unity
    guid: 8cac7205fca987642b89e6d794a40a42
  - enabled: 1
    path: Assets/DataFile/Scenes/Guia.unity
    guid: deb11f9ceeb10b1449dcaf42f7294a0c
